[
  {
    "r": 0,
    "g": 0,
    "b": 0
  },
  {
    "r": 0,
    "g": 0,
    "b": 85
  },
  {
    "r": 0,
    "g": 0,
    "b": 170
  },
  {
    "r": 0,
    "g": 0,
    "b": 255
  },
  {
    "r": 0,
    "g": 85,
    "b": 0
  },
  {
    "r": 0,
    "g": 85,
    "b": 85
  },
  {
    "r": 0,
    "g": 85,
    "b": 170
  },
  {
    "r": 0,
    "g": 85,
    "b": 255
  },
  {
    "r": 0,
    "g": 170,
    "b": 0
  },
  {
    "r": 0,
    "g": 170,
    "b": 85
  },
  {
    "r": 0,
    "g": 170,
    "b": 170
  },
  {
    "r": 0,
    "g": 170,
    "b": 255
  },
  {
    "r": 0,
    "g": 255,
    "b": 0
  },
  {
    "r": 0,
    "g": 255,
    "b": 85
  },
  {
    "r": 0,
    "g": 255,
    "b": 170
  },
  {
    "r": 0,
    "g": 255,
    "b": 255
  },
  {
    "r": 85,
    "g": 0,
    "b": 0
  },
  {
    "r": 85,
    "g": 0,
    "b": 85
  },
  {
    "r": 85,
    "g": 0,
    "b": 170
  },
  {
    "r": 85,
    "g": 0,
    "b": 255
  },
  {
    "r": 85,
    "g": 85,
    "b": 0
  },
  {
    "r": 85,
    "g": 85,
    "b": 85
  },
  {
    "r": 85,
    "g": 85,
    "b": 170
  },
  {
    "r": 85,
    "g": 85,
    "b": 255
  },
  {
    "r": 85,
    "g": 170,
    "b": 0
  },
  {
    "r": 85,
    "g": 170,
    "b": 85
  },
  {
    "r": 85,
    "g": 170,
    "b": 170
  },
  {
    "r": 85,
    "g": 170,
    "b": 255
  },
  {
    "r": 85,
    "g": 255,
    "b": 0
  },
  {
    "r": 85,
    "g": 255,
    "b": 85
  },
  {
    "r": 85,
    "g": 255,
    "b": 170
  },
  {
    "r": 85,
    "g": 255,
    "b": 255
  },
  {
    "r": 170,
    "g": 0,
    "b": 0
  },
  {
    "r": 170,
    "g": 0,
    "b": 85
  },
  {
    "r": 170,
    "g": 0,
    "b": 170
  },
  {
    "r": 170,
    "g": 0,
    "b": 255
  },
  {
    "r": 170,
    "g": 85,
    "b": 0
  },
  {
    "r": 170,
    "g": 85,
    "b": 85
  },
  {
    "r": 170,
    "g": 85,
    "b": 170
  },
  {
    "r": 170,
    "g": 85,
    "b": 255
  },
  {
    "r": 170,
    "g": 170,
    "b": 0
  },
  {
    "r": 170,
    "g": 170,
    "b": 85
  },
  {
    "r": 170,
    "g": 170,
    "b": 170
  },
  {
    "r": 170,
    "g": 170,
    "b": 255
  },
  {
    "r": 170,
    "g": 255,
    "b": 0
  },
  {
    "r": 170,
    "g": 255,
    "b": 85
  },
  {
    "r": 170,
    "g": 255,
    "b": 170
  },
  {
    "r": 170,
    "g": 255,
    "b": 255
  },
  {
    "r": 255,
    "g": 0,
    "b": 0
  },
  {
    "r": 255,
    "g": 0,
    "b": 85
  },
  {
    "r": 255,
    "g": 0,
    "b": 170
  },
  {
    "r": 255,
    "g": 0,
    "b": 255
  },
  {
    "r": 255,
    "g": 85,
    "b": 0
  },
  {
    "r": 255,
    "g": 85,
    "b": 85
  },
  {
    "r": 255,
    "g": 85,
    "b": 170
  },
  {
    "r": 255,
    "g": 85,
    "b": 255
  },
  {
    "r": 255,
    "g": 170,
    "b": 0
  },
  {
    "r": 255,
    "g": 170,
    "b": 85
  },
  {
    "r": 255,
    "g": 170,
    "b": 170
  },
  {
    "r": 255,
    "g": 170,
    "b": 255
  },
  {
    "r": 255,
    "g": 255,
    "b": 0
  },
  {
    "r": 255,
    "g": 255,
    "b": 85
  },
  {
    "r": 255,
    "g": 255,
    "b": 170
  },
  {
    "r": 255,
    "g": 255,
    "b": 255
  }
]
